_lib\src\stm8l15x_exti.c
_lib\src\stm8l15x_tim3.c
_lib\src\stm8l15x_gpio.c
_lib\src\stm8l15x_tim2.c
_lib\src\stm8l15x_clk.c
stm8l15x_it.c
main.c
stm8_interrupt_vector.c
_lib\inc\stm8l15x_tim3.h
_lib\inc\stm8l15x_gpio.h
stm8l15x_it.h
_lib\inc\stm8l15x_tim2.h
_lib\inc\stm8l15x_clk.h
_lib\stm8l15x.h
main.h
..\..\..\..\..\..\program files (x86)\cosmic\fse_compilers\cxstm8\hstm8\mods0.h
_lib\inc\stm8l15x_adc.h
_lib\inc\stm8l15x_aes.h
_lib\inc\stm8l15x_beep.h
_lib\inc\stm8l15x_comp.h
_lib\inc\stm8l15x_dac.h
_lib\inc\stm8l15x_dma.h
_lib\inc\stm8l15x_exti.h
_lib\inc\stm8l15x_flash.h
_lib\inc\stm8l15x_i2c.h
_lib\inc\stm8l15x_irtim.h
_lib\inc\stm8l15x_itc.h
_lib\inc\stm8l15x_iwdg.h
_lib\inc\stm8l15x_lcd.h
_lib\inc\stm8l15x_pwr.h
_lib\inc\stm8l15x_rst.h
_lib\inc\stm8l15x_rtc.h
_lib\inc\stm8l15x_spi.h
_lib\inc\stm8l15x_syscfg.h
_lib\inc\stm8l15x_tim1.h
_lib\inc\stm8l15x_tim4.h
_lib\inc\stm8l15x_tim5.h
_lib\inc\stm8l15x_usart.h
_lib\inc\stm8l15x_wfe.h
_lib\inc\stm8l15x_wwdg.h
stm8l15x_conf.h
